{
  "project_info": {
    "project_number": "436413258082",
    "project_id": "test-maia-raya",
    "storage_bucket": "test-maia-raya.appspot.com"
  },
  "client": [
    {
      "client_info": {
        "mobilesdk_app_id": "1:436413258082:android:3396a864eefb19ef9c343b",
        "android_client_info": {
          "package_name": "com.example.test_maia_raya"
        }
      },
      "oauth_client": [
        {
          "client_id": "436413258082-1btnm5lqs0rb1douvkcml5r56f2s7o25.apps.googleusercontent.com",
          "client_type": 3
        }
      ],
      "api_key": [
        {
          "current_key": "AIzaSyB8BAEwDLVIJnfjE6m8fUGyPL7vVAUMXfk"
        }
      ],
      "services": {
        "appinvite_service": {
          "other_platform_oauth_client": [
            {
              "client_id": "436413258082-1btnm5lqs0rb1douvkcml5r56f2s7o25.apps.googleusercontent.com",
              "client_type": 3
            }
          ]
        }
      }
    }
  ],
  "configuration_version": "1"
}